{
  "username": "usera",
  "password": "passwordA",
  "confirmPassword": "passwordA",
  "email": "usera@email.com",
  "information":{
    "sex": "M",
    "age": "18",
    "nationality": "Dutch",
    "location": [
      {
        "continent": "Americas",
        "country": "United States",
        "region": "California",
        "city": "Los Angeles"
      },
      {
        "continent": "Europe",
        "country": "France",
        "region": "Normandy",
        "city": "Paris"
      },
      {
        "continent": "Asia",
        "country": "Australia"
      }
    ],
  "ribbons": {
    "1": true,
    "2": false,
    "3": true,
    "4": true,
    "5": false
  }
}