{
  "username": "usercommunity",
  "password": "passwordCommunity",
  "confirmPassword": "passwordCommunity",
  "email": "usercommunity@email.com",
  "information":{
    "sex": "F",
    "age": "34",
    "nationality": "Portuguese",
    "location": [
      {
        "continent": "Americas",
        "country": "United States",
        "region": "California",
        "city": "Los Angeles"
      },
      {
        "continent": "Europe",
        "country": "France",
        "region": "Normandy",
        "city": "Paris"
      },
      {
        "continent": "Asia",
        "country": "Australia"
      }
    ],
  "ribbons": {
    "1": true,
    "2": false,
    "3": true,
    "4": true,
    "5": false
  }
}